{
    "KPackageStructure": "KPackage/GenericQML",
    "KPlugin": {
        "Authors": [
            {
                "Email": "sebas@kde.org",
                "Name": "Sebastian Kügler",
                "Name[ar]": "Sebastian Kügler",
                "Name[az]": "Sebastian Kügler",
                "Name[be]": "Sebastian Kügler",
                "Name[bg]": "Sebastian Kügler",
                "Name[ca@valencia]": "Sebastian Kügler",
                "Name[ca]": "Sebastian Kügler",
                "Name[cs]": "Sebastian Kügler",
                "Name[de]": "Sebastian Kügler",
                "Name[en_GB]": "Sebastian Kügler",
                "Name[eo]": "Sebastian Kügler",
                "Name[es]": "Sebastian Kügler",
                "Name[eu]": "Sebastian Kügler",
                "Name[fi]": "Sebastian Kügler",
                "Name[fr]": "Sebastian Kügler",
                "Name[ia]": "Sebastian Kügler",
                "Name[id]": "Sebastian Kügler",
                "Name[it]": "Sebastian Kügler",
                "Name[ka]": "Sebastian Kügler",
                "Name[ko]": "Sebastian Kügler",
                "Name[nl]": "Sebastian Kügler",
                "Name[nn]": "Sebastian Kügler",
                "Name[pl]": "Sebastian Kügler",
                "Name[pt]": "Sebastian Kügler",
                "Name[pt_BR]": "Sebastian Kügler",
                "Name[ru]": "Sebastian Kügler",
                "Name[sk]": "Sebastian Kügler",
                "Name[sl]": "Sebastian Kügler",
                "Name[sv]": "Sebastian Kügler",
                "Name[tr]": "Sebastian Kügler",
                "Name[uk]": "Sebastian Kügler",
                "Name[vi]": "Sebastian Kügler",
                "Name[x-test]": "xxSebastian Küglerxx",
                "Name[zh_CN]": "Sebastian Kügler"
            }
        ],
        "Category": "Development",
        "Description": "Basic App",
        "Description[az]": "Əsas tətbiq",
        "Description[be]": "Базавая праграма",
        "Description[bg]": "Основни приложения",
        "Description[ca@valencia]": "Aplicació bàsica",
        "Description[ca]": "Aplicació bàsica",
        "Description[cs]": "Základní aplikace",
        "Description[de]": "Einfache Anwendung",
        "Description[en_GB]": "Basic App",
        "Description[eo]": "Baza Apo",
        "Description[es]": "Aplicación básica",
        "Description[eu]": "Oinarrizko aplikazioa",
        "Description[fi]": "Perussovelma",
        "Description[fr]": "Application de base",
        "Description[ia]": "App Basic",
        "Description[id]": "Aplikasi Dasar",
        "Description[it]": "Applicazione di base",
        "Description[ka]": "ჩვეულებრივი აპი",
        "Description[ko]": "기본 앱",
        "Description[nl]": "Basis app",
        "Description[nn]": "Grunnleggjande program",
        "Description[pl]": "Podstawowa aplikacja",
        "Description[pt]": "Aplicação Básica",
        "Description[pt_BR]": "Aplicativo básico",
        "Description[ru]": "Простейшее приложение",
        "Description[sk]": "Základná aplikácia",
        "Description[sl]": "Osnovna aplikacija",
        "Description[sv]": "Enkel applikation",
        "Description[tr]": "Yalın Uygulama",
        "Description[uk]": "Базова програма",
        "Description[vi]": "Ứng dụng cơ bản",
        "Description[x-test]": "xxBasic Appxx",
        "Description[zh_CN]": "基本应用程序",
        "Icon": "kbugbuster",
        "Id": "org.kde.example.developerguide.basic",
        "License": "LGPLv2+",
        "Name": "Bug",
        "Name[ar]": "علّة",
        "Name[az]": "Xəta",
        "Name[be]": "Хіба",
        "Name[bg]": "Бъг",
        "Name[ca@valencia]": "S'ha produït un error",
        "Name[ca]": "Error",
        "Name[cs]": "Chyba",
        "Name[de]": "Fehler",
        "Name[en_GB]": "Bug",
        "Name[eo]": "Cimo",
        "Name[es]": "Fallo",
        "Name[eu]": "Akatsa",
        "Name[fi]": "Ohjelmavirhe",
        "Name[fr]": "Bogue",
        "Name[ia]": "Bug",
        "Name[id]": "Bug",
        "Name[it]": "Bug",
        "Name[ka]": "შეცდომა",
        "Name[ko]": "버그",
        "Name[nl]": "Bug",
        "Name[nn]": "Feil",
        "Name[pl]": "Błąd",
        "Name[pt]": "Insecto",
        "Name[pt_BR]": "Erro",
        "Name[ru]": "Ошибка",
        "Name[sk]": "Chyba",
        "Name[sl]": "Hrošč",
        "Name[sv]": "Fel",
        "Name[ta]": "பிழை",
        "Name[tr]": "Hata",
        "Name[uk]": "Вада",
        "Name[vi]": "Lỗi",
        "Name[x-test]": "xxBugxx",
        "Name[zh_CN]": "程序缺陷",
        "Version": "1.0",
        "Website": "https://www.kde.org"
    },
    "X-Plasma-API": "declarativeappletscript",
    "X-Plasma-MainScript": "ui/main.qml"
}
